{
  "paths": {
    "DSI/safeExecute": "/SuiteBundles/Bundle 189151/dsi.safeExecute",
    "DSI/timerUtil": "/SuiteBundles/Bundle 189151/dsi.timerUtil",
    "DSI/commonUtil": "/SuiteBundles/Bundle 189151/DSI_CommonUtility2.0_react",
    "DSI/appHelper": "/SuiteBundles/Bundle 189151/dsi_reactapps_app_main.min"
  }
}